<svg width="125" height="86" viewBox="0 0 125 86" fill="none" xmlns="http://www.w3.org/2000/svg">
<path d="M71.4414 34.4266H72.6244V30.5385L75.9615 33.8413L72.0329 37.7294L65.4739 31.2381V27.0074L69.6478 22.8765L77.3897 30.5385V20.2781V19.1026V8.84223L69.6478 16.5042L65.4739 12.3734V8.14265L72.0329 1.65612L75.9615 5.54424L72.6244 8.84223V4.95413H71.4414V11.6738L77.6349 5.54424L72.0329 0L64.291 7.65724V12.8588L69.6478 18.1604L76.2068 11.6738V19.1026V20.2781V27.7069L69.6478 21.2204L64.291 26.5219V31.7235L72.0329 39.3855L77.6349 33.8413L71.4414 27.7069V34.4266Z" fill="white"/>
<path d="M48.7983 27.7069V20.2781V19.1026V11.6738L55.3524 18.1604L60.7092 12.8588V7.65724L52.9721 0L47.3701 5.54424L53.5636 11.6738V4.95413H52.3807V8.84223L49.0435 5.54424L52.9721 1.65612L59.5263 8.14265V12.3734L55.3524 16.5042L47.6154 8.84223V19.1026V20.2781V30.5385L55.3524 22.8765L59.5263 27.0074V31.2381L52.9721 37.7246L49.0435 33.8413L52.3807 30.5385V34.4266H53.5636V27.7069L47.3701 33.8413L52.9721 39.3855L60.7092 31.7235V26.5219L55.3524 21.2204L48.7983 27.7069Z" fill="white"/>
<path d="M62.4997 14.8965L57.6436 19.7012L62.4983 24.5072L67.3544 19.7025L62.4997 14.8965Z" fill="white"/>
<path d="M40.8824 74.7686V75.273H39.584V78.8708H38.9878V75.273H37.6895V74.7686H40.8824Z" fill="white"/>
<path d="M42.4986 74.7686V76.5532H44.3884V74.7686H44.9847V78.8708H44.3884V77.0576H42.4986V78.8708H41.9023V74.7686H42.4986Z" fill="white"/>
<path d="M48.9274 74.7686V75.273H46.903V76.5532H48.7735V77.0576H46.903V78.3664H48.9755V78.8708H46.3115V74.7686H48.9274Z" fill="white"/>
<path d="M52.5338 74.7686V76.5532H54.4284V74.7686H55.0199V78.8708H54.4284V77.0576H52.5338V78.8708H51.9424V74.7686H52.5338Z" fill="white"/>
<path d="M58.0784 78.9664C56.9292 78.9664 56.1357 78.1336 56.1357 76.8201C56.1357 75.5066 56.9292 74.6738 58.0784 74.6738C59.2277 74.6738 60.0211 75.5066 60.0211 76.8201C60.0163 78.1336 59.2229 78.9664 58.0784 78.9664ZM58.0784 75.183C57.2898 75.183 56.7512 75.7684 56.7512 76.8249C56.7512 77.8766 57.2898 78.4668 58.0784 78.4668C58.867 78.4668 59.4056 77.8814 59.4056 76.8249C59.4008 75.7684 58.8622 75.183 58.0784 75.183Z" fill="white"/>
<path d="M61.7954 74.7686L63.1755 78.3378L64.5556 74.7686H65.2191V78.8708H64.6277V75.9298L63.4881 78.8708H62.8629L61.7233 75.9298V78.8708H61.1318V74.7686H61.7954Z" fill="white"/>
<path d="M69.1628 74.7686V75.273H67.1383V76.5532H69.0089V77.0576H67.1383V78.3664H69.2109V78.8708H66.5469V74.7686H69.1628Z" fill="white"/>
<path d="M70.9176 74.7686V78.3664H72.9902V78.8708H70.3262V74.7686H70.9176Z" fill="white"/>
<path d="M75.9957 74.7686L77.6643 78.8708H77.0488L76.6737 77.9238H74.683L74.3079 78.8708H73.6924L75.361 74.7686H75.9957ZM76.4814 77.4193L75.6832 75.392L74.8849 77.4193H76.4814Z" fill="white"/>
<path d="M79.1548 74.7686L81.1552 77.9857V74.7686H81.7467V78.8708H81.0831L79.0827 75.6537V78.8708H78.4912V74.7686H79.1548Z" fill="white"/>
<path d="M84.338 74.7686C85.4872 74.7686 86.3576 75.5062 86.3576 76.8197C86.3576 78.1332 85.4872 78.8708 84.338 78.8708H83.0781V74.7686H84.338ZM83.6696 78.3664H84.338C85.1795 78.3664 85.7421 77.8762 85.7421 76.8197C85.7421 75.7632 85.1795 75.273 84.338 75.273H83.6696V78.3664Z" fill="white"/>
<path d="M31.4241 85.9949C30.2749 85.9949 29.4814 85.1668 29.4814 83.8533C29.4814 82.5398 30.2749 81.707 31.4241 81.707C32.5734 81.707 33.3668 82.5398 33.3668 83.8533C33.3668 85.1668 32.5734 85.9949 31.4241 85.9949ZM31.4241 82.2162C30.6355 82.2162 30.0969 82.8016 30.0969 83.8581C30.0969 84.9098 30.6355 85.4952 31.4241 85.4952C32.2127 85.4952 32.7513 84.9098 32.7513 83.8581C32.7513 82.8016 32.2127 82.2162 31.4241 82.2162Z" fill="white"/>
<path d="M37.2089 81.8027V82.3072H35.0739V83.5874H37.055V84.0871H35.0739V85.905H34.4824V81.8027H37.2089Z" fill="white"/>
<path d="M41.9074 85.9949C40.7581 85.9949 39.9551 85.1668 39.9551 83.8533C39.9551 82.5398 40.7966 81.707 41.9074 81.707C42.797 81.707 43.4413 82.1734 43.6 82.9824L43.023 83.0871C42.8787 82.5256 42.47 82.2067 41.9074 82.2067C41.1188 82.2067 40.5706 82.7921 40.5706 83.8486C40.5706 84.9003 41.1236 85.4904 41.9074 85.4904C42.5517 85.4904 42.9316 85.105 43.0807 84.5148L43.6241 84.6386C43.4221 85.4667 42.8258 85.9949 41.9074 85.9949Z" fill="white"/>
<path d="M46.4606 81.8027L48.1292 85.905H47.5137L47.1386 84.9579H45.1479L44.7776 85.905H44.1621L45.8307 81.8027H46.4606ZM46.9463 84.4535L46.1481 82.4262L45.3498 84.4535H46.9463Z" fill="white"/>
<path d="M49.5475 84.3107V85.905H48.9561V81.8027H50.4323C51.2498 81.8027 51.8749 82.2739 51.8749 83.0544C51.8749 83.6302 51.5431 84.0252 51.0478 84.2108L52.0047 85.905H51.3123L50.4131 84.3107H49.5475ZM50.4467 83.8063C50.9276 83.8063 51.2882 83.5636 51.2882 83.0544C51.2882 82.5499 50.9276 82.3024 50.4467 82.3024H49.5475V83.8015H50.4467V83.8063Z" fill="white"/>
<path d="M54.4669 81.8027C55.3421 81.8027 55.9432 82.2786 55.9432 83.0924C55.9432 83.9062 55.3469 84.3821 54.4669 84.3821H53.611V85.905H53.0195V81.8027H54.4669V81.8027ZM54.4573 83.8777C54.9766 83.8777 55.3517 83.6254 55.3517 83.0924C55.3517 82.5594 54.9863 82.3072 54.4573 82.3072H53.611V83.8777H54.4573V83.8777Z" fill="white"/>
<path d="M59.6657 81.8027V82.3072H57.6413V83.5874H59.5118V84.0871H57.6413V85.4005H59.7138V85.905H57.0498V81.8027H59.6657Z" fill="white"/>
<path d="M63.7768 81.8027V82.3072H62.4737V85.905H61.8822V82.3072H60.5791V81.8027H63.7768Z" fill="white"/>
<path d="M66.7672 81.8027L67.753 85.2149L68.6618 81.8027H69.335L70.2487 85.2149L71.2344 81.8027H71.8211L70.5997 85.905H69.9361L69.0032 82.4119L68.0656 85.905H67.402L66.1758 81.8027H66.7672Z" fill="white"/>
<path d="M75.3561 81.8027V82.3072H73.3317V83.5874H75.2023V84.0871H73.3317V85.4005H75.4042V85.905H72.7402V81.8027H75.3561Z" fill="white"/>
<path d="M78.4479 81.8027L80.1165 85.905H79.501L79.1259 84.9579H77.1351L76.76 85.905H76.1445L77.8131 81.8027H78.4479ZM78.9335 84.4535L78.1353 82.4262L77.3371 84.4535H78.9335Z" fill="white"/>
<path d="M80.5156 81.8027L81.7995 85.2483L83.0834 81.8027H83.7181L82.1121 85.905H81.4869L79.8809 81.8027H80.5156Z" fill="white"/>
<path d="M85.1706 81.8027H84.5791V85.905H85.1706V81.8027Z" fill="white"/>
<path d="M87.1606 81.8027L89.161 85.0198V81.8027H89.7525V85.905H89.0889L87.0885 82.6879V85.905H86.4971V81.8027H87.1606Z" fill="white"/>
<path d="M94.6622 83.8202V85.067C94.2727 85.6333 93.7149 85.9998 92.8974 85.9998C91.7481 85.9998 90.8682 85.1669 90.8682 83.8582C90.8682 82.5495 91.8203 81.7119 92.9022 81.7119C93.8543 81.7119 94.4602 82.2211 94.6237 82.9731L94.0611 83.1206C93.9264 82.5495 93.4985 82.2164 92.9022 82.2164C92.1617 82.2164 91.4837 82.8017 91.4837 83.8582C91.4837 84.91 92.1088 85.5001 92.9263 85.5001C93.5514 85.5001 93.8784 85.1765 94.0947 84.929V84.3341H92.7531V83.8297H94.6622V83.8202Z" fill="white"/>
<path d="M0 60.7247L4.16426 51.5684H5.47221L9.62204 60.7247H7.02058L6.12137 58.7354H2.20716L1.30794 60.7247H0ZM5.76073 57.955L4.16426 54.4476L2.56299 57.955H5.76073Z" fill="white"/>
<path d="M12.1943 60.7248V59.6778L17.1857 52.6155H12.3242V51.5732H20.0949V52.6155L15.0987 59.6778H20.0949V60.7248H12.1943Z" fill="white"/>
<path d="M23.3936 60.7248V51.5732H30.544V52.6155H25.9037V55.5565H29.8804V56.6083H25.9037V59.6778H30.544V60.7248H23.3936Z" fill="white"/>
<path d="M33.9727 51.5732H38.1369C39.3872 51.5732 40.3922 51.8255 41.1567 52.3252C41.9165 52.8249 42.3012 53.4864 42.3012 54.3097C42.3012 54.8427 42.1377 55.3091 41.8107 55.7136C41.4837 56.1181 41.0269 56.4417 40.4354 56.6749L42.7099 60.7296H39.9882L37.9253 57.0699H36.4876V60.7296H33.9727V51.5732ZM37.9398 56.0182C38.4591 56.0182 38.8774 55.8611 39.19 55.547C39.5026 55.2329 39.6613 54.8189 39.6613 54.3049C39.6613 53.8005 39.5026 53.3912 39.19 53.0819C38.8774 52.7725 38.4639 52.6202 37.9542 52.6202H36.4876V56.0182H37.9398V56.0182Z" fill="white"/>
<path d="M45.874 60.7248V51.5732H48.3889V56.0943L52.2695 51.5732H53.9092L51.1346 54.7618L54.7555 60.7248H51.9425L49.4949 56.6464L48.3889 57.9408V60.7248H45.874Z" fill="white"/>
<path d="M57.79 60.7248V51.5732H60.3001V55.5565H64.0028V51.5732H66.5129V60.7248H64.0028V56.6083H60.3001V60.7248H57.79Z" fill="white"/>
<path d="M69.4795 60.7247L73.6438 51.5684H74.9517L79.1015 60.7247H76.4953L75.5961 58.7354H71.6818L70.7826 60.7247H69.4795ZM75.2402 57.955L73.6438 54.4476L72.0425 57.955H75.2402Z" fill="white"/>
<path d="M82.0684 51.5732H84.5785V59.6778H89.0841V60.7248H82.0684V51.5732Z" fill="white"/>
<path d="M99.1247 52.3446C99.9277 52.9443 100.327 53.7343 100.327 54.7099H97.7494C97.7494 53.9675 97.5811 53.3678 97.2397 52.911C96.8983 52.4541 96.4607 52.2257 95.9221 52.2257C95.2633 52.2257 94.7392 52.5826 94.3497 53.2964C93.965 54.0103 93.7679 54.9621 93.7679 56.1471C93.7679 57.3321 93.9602 58.2839 94.3497 58.9977C94.7392 59.7116 95.2633 60.0685 95.9221 60.0685C96.4607 60.0685 96.8983 59.8401 97.2397 59.3832C97.5811 58.9263 97.7494 58.3267 97.7494 57.5843H100.327C100.327 58.5599 99.9277 59.3499 99.1247 59.9543C98.3216 60.5539 97.2926 60.8585 96.0327 60.8585C94.5276 60.8585 93.3303 60.4302 92.4503 59.5688C91.5703 58.7122 91.1279 57.57 91.1279 56.1518C91.1279 54.7289 91.5703 53.5915 92.4503 52.7301C93.3303 51.8735 94.5276 51.4404 96.0327 51.4404C97.2926 51.4404 98.3216 51.7402 99.1247 52.3446Z" fill="white"/>
<path d="M103.688 60.7248V51.5732H106.203V55.5565H109.901V51.5732H112.411V60.7248H109.901V56.6083H106.203V60.7248H103.688Z" fill="white"/>
<path d="M115.378 60.7247L119.542 51.5684H120.85L125 60.7247H122.394L121.494 58.7354H117.58L116.681 60.7247H115.378ZM121.143 57.955L119.547 54.4476L117.946 57.955H121.143Z" fill="white"/>
</svg>
